<?xml version="1.0" encoding="utf-8"?>
<!-- Generator: Adobe Illustrator 21.0.0, SVG Export Plug-In . SVG Version: 6.00 Build 0)  -->
<svg version="1.1" id="Layer_1" xmlns="http://www.w3.org/2000/svg" xmlns:xlink="http://www.w3.org/1999/xlink" x="0px" y="0px"
	 viewBox="0 0 467.4 95.3" enable-background="new 0 0 467.4 95.3" xml:space="preserve">
<title>ucommerce_logo</title>
<path fill="#3C43BF" d="M87,0.9c-0.5-0.4-1.3-0.4-1.7,0.1l-4.4,4.4c-0.3,0.3-0.4,0.6-0.4,1c0,0.4,0.2,0.7,0.5,0.9
	c19.1,15.2,22.3,43,7.1,62.1s-43,22.3-62.1,7.1s-22.3-43-7.1-62.1c2.1-2.6,4.5-5,7.1-7.1c0.5-0.4,0.6-1.2,0.2-1.7
	c0,0-0.1-0.1-0.1-0.1L21.7,1c-0.4-0.5-1.2-0.5-1.7-0.1C-2.6,19.4-5.9,52.7,12.6,75.3s51.8,25.9,74.4,7.4s25.9-51.8,7.4-74.4
	C92.2,5.6,89.7,3.1,87,0.9z"/>
<path fill="#3C43BF" d="M53.5,95.3C24,95.3,0,71.4,0,41.9C0,25.8,7.2,10.6,19.6,0.4c0.7-0.6,1.8-0.5,2.5,0.1L26.5,5
	c0.7,0.7,0.7,1.9,0,2.6c0,0-0.1,0.1-0.2,0.1c-18.9,15-22,42.4-7,61.3s42.4,22,61.3,7s22-42.4,7-61.3c-2.1-2.6-4.4-4.9-7-7
	c-0.8-0.6-0.9-1.8-0.3-2.6c0-0.1,0.1-0.1,0.1-0.2l4.4-4.5c0.7-0.7,1.7-0.7,2.5-0.1l0,0c22.9,18.7,26.2,52.4,7.6,75.2
	C84.7,88.1,69.5,95.3,53.5,95.3z M20.8,1.2c-0.1,0-0.3,0.1-0.4,0.1C-2,19.6-5.3,52.6,13,74.9s51.2,25.7,73.6,7.4s25.7-51.2,7.4-73.6
	c-2.2-2.7-4.7-5.2-7.4-7.4l0,0c-0.2-0.2-0.6-0.2-0.9,0l-4.4,4.5c-0.1,0.1-0.2,0.3-0.2,0.5c0,0.2,0.1,0.3,0.2,0.5
	c19.4,15.4,22.6,43.6,7.2,62.9S45,92.3,25.6,76.9S3,33.3,18.4,14c2.1-2.7,4.5-5.1,7.2-7.2c0.1-0.1,0.2-0.3,0.2-0.5
	c0-0.2-0.1-0.4-0.2-0.5l-4.4-4.4C21.1,1.3,21,1.2,20.8,1.2z"/>
<path fill="#3C43BF" d="M53.5,74.6c8.4,0,16.4-3.2,22.5-9c0.5-0.5,0.5-1.3,0-1.8c0,0,0,0,0,0l-4.4-4.4c-0.5-0.5-1.2-0.5-1.7,0
	c-9.7,9.1-25,8.7-34.1-1s-8.7-25,1-34.1c9.3-8.7,23.8-8.7,33,0c0.5,0.5,1.2,0.5,1.7,0l4.4-4.5c0.5-0.5,0.5-1.3,0-1.8c0,0,0,0,0,0
	C62.8,5.6,42.1,6.2,29.7,19.3S17.9,53.2,31,65.6C37.1,71.4,45.1,74.6,53.5,74.6z"/>
<path fill="#3C43BF" d="M53.5,75.2C35,75.3,20,60.4,20,41.9C19.9,23.5,34.8,8.5,53.2,8.4c8.6,0,16.9,3.3,23.2,9.2
	c0.7,0.7,0.7,1.9,0,2.6c0,0,0,0,0,0L72,24.6c-0.7,0.7-1.8,0.7-2.6,0c-9.5-8.9-24.3-8.4-33.2,1s-8.4,24.3,1,33.2
	c9.1,8.5,23.2,8.5,32.2,0c0.7-0.7,1.9-0.6,2.6,0.1l4.4,4.4c0.7,0.7,0.7,1.9,0,2.6c0,0,0,0,0,0C70.2,71.9,62,75.2,53.5,75.2z
	 M53.5,9.6C35.7,9.5,21.2,23.9,21.1,41.6C21.1,59.4,35.4,73.9,53.2,74c8.3,0,16.3-3.1,22.4-8.9c0.3-0.2,0.3-0.7,0-0.9c0,0,0,0,0,0
	l-4.4-4.4c-0.3-0.2-0.6-0.2-0.9,0c-9.9,9.4-25.6,8.9-34.9-1.1s-8.9-25.6,1.1-34.9c9.5-9,24.4-9,33.9,0c0.2,0.2,0.6,0.2,0.9,0
	l4.4-4.4c0.3-0.2,0.3-0.7,0-0.9c0,0,0,0,0,0C69.6,12.8,61.7,9.6,53.5,9.6L53.5,9.6z"/>
<path fill="#3C43BF" d="M153.9,29.7h-7.7c-0.3,0-0.6,0.3-0.6,0.6c0,0,0,0,0,0v19c0.1,2.2-0.5,4.3-1.8,6.1c-1.1,1.4-2.8,2.2-4.6,2.2
	c-1.8,0.1-3.6-0.7-4.7-2.2c-1.3-1.8-1.9-3.9-1.8-6.1v-19c0-0.3-0.3-0.6-0.6-0.6c0,0,0,0,0,0h-7.7c-0.3,0-0.6,0.3-0.6,0.6
	c0,0,0,0,0,0v19.2c0,5.1,1.5,9.1,4.3,11.9c6.3,5.6,15.7,5.6,22,0c2.9-2.8,4.3-6.8,4.3-11.9V30.3C154.6,29.9,154.3,29.7,153.9,29.7
	C153.9,29.7,153.9,29.7,153.9,29.7z"/>
<path fill="#3C43BF" d="M178.5,28.9c-4.9-0.1-9.7,1.8-13.2,5.3c-3.6,3.4-5.5,8.2-5.4,13.2c-0.1,4.9,1.8,9.7,5.3,13.1
	c3.6,3.5,8.5,5.3,13.5,5.2c5.4,0,10.2-2.3,14.2-6.8c0.2-0.2,0.2-0.6,0-0.8l-4.9-5.1c-0.1-0.1-0.3-0.2-0.5-0.2
	c-0.2,0-0.4,0.1-0.5,0.3c-2.1,2.7-5.3,4.3-8.8,4.2c-2.5,0.1-4.9-0.9-6.6-2.7c-1.8-2-2.8-4.6-2.7-7.3c-0.1-2.7,0.9-5.3,2.9-7.2
	c1.9-1.8,4.4-2.7,7-2.7c3.4,0,6.6,1.6,8.6,4.3c0.1,0.1,0.3,0.2,0.5,0.2c0.2,0,0.3-0.1,0.5-0.2l4.8-5.4c0.2-0.2,0.2-0.6,0-0.8
	C189.5,31.2,184.1,28.8,178.5,28.9z"/>
<path fill="#3C43BF" d="M214.9,28.9c-4.9-0.1-9.7,1.8-13.2,5.3c-3.5,3.4-5.5,8.2-5.4,13.1c-0.1,4.9,1.8,9.7,5.4,13.1
	c7.4,7,19,7,26.5,0c3.5-3.4,5.5-8.2,5.4-13.1c0.1-4.9-1.8-9.7-5.4-13.1C224.6,30.7,219.8,28.8,214.9,28.9z M224.5,47.2
	c0.1,2.7-0.9,5.4-2.8,7.4c-3.4,3.8-9.2,4-12.9,0.7c-0.2-0.2-0.4-0.4-0.7-0.7c-3.7-4.2-3.7-10.6,0-14.8c3.3-3.7,9.1-4.1,12.8-0.7
	c0.3,0.2,0.5,0.5,0.7,0.7C223.5,41.8,224.5,44.5,224.5,47.2z"/>
<path fill="#3C43BF" d="M278.3,29.7H268c-0.2,0-0.5,0.1-0.6,0.4l-8.3,17.7L250.8,30c-0.1-0.2-0.3-0.4-0.6-0.4h-10.4
	c-0.3,0-0.6,0.3-0.6,0.6c0,0,0,0,0,0v34.3c0,0.3,0.3,0.6,0.6,0.6c0,0,0,0,0,0h7.7c0.3,0,0.6-0.3,0.6-0.6c0,0,0,0,0,0v-19l8.1,16.4
	c0.1,0.2,0.3,0.3,0.5,0.3h4.6c0.2,0,0.4-0.1,0.5-0.3l8.1-16.4v19c0,0.3,0.3,0.6,0.6,0.6c0,0,0,0,0,0h7.7c0.3,0,0.6-0.3,0.6-0.6
	c0,0,0,0,0,0V30.3C278.9,30,278.6,29.7,278.3,29.7z"/>
<path fill="#3C43BF" d="M325.9,29.7h-10.3c-0.2,0-0.4,0.1-0.5,0.3l-8.3,17.7L298.4,30c-0.1-0.2-0.3-0.4-0.6-0.4h-10.4
	c-0.3,0-0.6,0.3-0.6,0.6c0,0,0,0,0,0v34.3c0,0.3,0.3,0.6,0.6,0.6c0,0,0,0,0,0h7.7c0.3,0,0.6-0.3,0.6-0.6c0,0,0,0,0,0v-19l8.1,16.4
	c0.1,0.2,0.3,0.3,0.5,0.3h4.6c0.2,0,0.4-0.1,0.5-0.3l8.1-16.4v19c0,0.3,0.3,0.6,0.6,0.6c0,0,0,0,0,0h7.7c0.3,0,0.6-0.3,0.6-0.6
	c0,0,0,0,0,0V30.3C326.5,29.9,326.2,29.7,325.9,29.7C325.9,29.7,325.9,29.7,325.9,29.7z"/>
<path fill="#3C43BF" d="M359.4,57.2h-17v-5.9h14.8c0.3,0,0.6-0.3,0.6-0.6c0,0,0,0,0,0v-6.5c0-0.3-0.3-0.6-0.6-0.6c0,0,0,0,0,0h-14.8
	v-5.8h16.5c0.3,0,0.6-0.3,0.6-0.6c0,0,0,0,0,0v-6.8c0-0.3-0.3-0.6-0.6-0.6c0,0,0,0,0,0h-24.7c-0.3,0-0.6,0.3-0.6,0.6c0,0,0,0,0,0
	v34.3c0,0.3,0.3,0.6,0.6,0.6c0,0,0,0,0,0h25.3c0.3,0,0.6-0.3,0.6-0.6c0,0,0,0,0,0v-6.8C360.1,57.5,359.8,57.2,359.4,57.2
	C359.4,57.2,359.4,57.2,359.4,57.2z"/>
<path fill="#3C43BF" d="M390,52.6c4.1-1.8,6.2-5.5,6.2-10.9c0-4.2-1.2-7.2-3.6-9.2s-6.4-2.8-11.8-2.8h-13c-0.3,0-0.6,0.3-0.6,0.6
	c0,0,0,0,0,0v34.3c0,0.3,0.3,0.6,0.6,0.6c0,0,0,0,0,0h7.7c0.3,0,0.6-0.3,0.6-0.6c0,0,0,0,0,0V54.3h4.4l7.4,10.7
	c0.1,0.2,0.3,0.3,0.5,0.3h9.4c0.3,0,0.6-0.3,0.6-0.6c0-0.1,0-0.3-0.1-0.4L390,52.6z M387.2,41.7c0.1,1.3-0.3,2.6-1.2,3.6
	c-0.8,0.7-2.5,1.1-4.9,1.1h-5v-8.9h5.1c2.3,0,3.9,0.3,4.8,0.9S387.1,40.1,387.2,41.7L387.2,41.7z"/>
<path fill="#3C43BF" d="M420.3,28.9c-4.9-0.1-9.7,1.8-13.2,5.3c-3.6,3.4-5.5,8.2-5.4,13.2c-0.1,4.9,1.8,9.7,5.3,13.1
	c3.6,3.5,8.5,5.3,13.5,5.2c5.4,0,10.2-2.3,14.2-6.8c0.2-0.2,0.2-0.6,0-0.8l-4.9-5c-0.1-0.1-0.3-0.2-0.5-0.2c-0.2,0-0.3,0.1-0.5,0.2
	c-2.1,2.7-5.3,4.3-8.8,4.2c-2.5,0.1-4.9-0.9-6.6-2.7c-1.9-1.9-2.8-4.6-2.7-7.2c-0.1-2.7,0.9-5.3,2.9-7.2c1.9-1.8,4.4-2.7,7-2.7
	c3.4,0,6.6,1.6,8.6,4.3c0.1,0.1,0.3,0.2,0.5,0.2c0.2,0,0.4-0.1,0.5-0.2l4.8-5.4c0.2-0.2,0.2-0.6,0-0.8
	C431.3,31.2,425.9,28.8,420.3,28.9z"/>
<path fill="#3C43BF" d="M466.8,57.2h-17v-5.9h14.8c0.3,0,0.6-0.3,0.6-0.6c0,0,0,0,0,0v-6.5c0-0.3-0.3-0.6-0.6-0.6c0,0,0,0,0,0h-14.8
	v-5.8h16.5c0.3,0,0.6-0.3,0.6-0.6c0,0,0,0,0,0v-6.8c0-0.3-0.3-0.6-0.6-0.6c0,0,0,0,0,0h-24.7c-0.3,0-0.6,0.3-0.6,0.6c0,0,0,0,0,0
	v34.3c0,0.3,0.3,0.6,0.6,0.6c0,0,0,0,0,0h25.3c0.3,0,0.6-0.3,0.6-0.6c0,0,0,0,0,0v-6.8C467.4,57.5,467.1,57.2,466.8,57.2
	C466.8,57.2,466.8,57.2,466.8,57.2z"/>
</svg>
